        -:    0:Source:F:/sathya/modekey/TST/gtst_main.cpp
        -:    0:Graph:F:\sathya\modekey\DBG\TST\gtst_main.gcno
        -:    0:Data:F:\sathya\modekey\DBG\TST\gtst_main.gcda
        -:    0:Runs:1
        -:    0:Programs:1
        -:    1:
        -:    2:/*
        -:    3:
        -:    4:filename : gtst_main.cpp
        -:    5:author : sathiyanarayanan
        -:    6:created at : 2019-04-01 01:56:12.328823
        -:    7:
        -:    8:*/
        -:    9:    
        -:   10:
        -:   11:#include <stdio.h>
        -:   12:#include "gtest/gtest.h"
        -:   13:
        1:   14:GTEST_API_ int main(int argc, char **argv) {
        1:   15:  printf("Running main() from gtest_main.cc\n");
        1:   16:  testing::InitGoogleTest(&argc, argv);
        1:   17:  return RUN_ALL_TESTS();
        -:   18:}
        -:   19:        
