        -:    0:Source:F:/sathya/modekey/INC/stub.c
        -:    0:Graph:F:\sathya\modekey\DBG\SRC\stub.gcno
        -:    0:Data:F:\sathya\modekey\DBG\SRC\stub.gcda
        -:    0:Runs:1
        -:    0:Programs:1
        -:    1:/*
        -:    2:
        -:    3:filename : stub.c
        -:    4:author : sathiyanarayanan
        -:    5:created at : 2019-04-01 01:56:12.281970
        -:    6:
        -:    7:*/
        -:    8:
        -:    9:#ifndef INC_STUB_C_
        -:   10:#define INC_STUB_C_
        -:   11:
        -:   12:#include "M_led_handler.h"
        -:   13:
        -:   14:LED_NAME gchoice = LED_END;
        -:   15:G_CTL_CODES gcmd = NILL;
        -:   16:
    #####:   17:void m_u8LED_ctrl_led(LED_NAME choice,G_CTL_CODES cmd)
        -:   18:{
    #####:   19:	gchoice = choice;
    #####:   20:	gcmd = cmd;
    #####:   21:}
        -:   22:
    #####:   23:LED_NAME get_led_name()
        -:   24:{
    #####:   25:	LED_NAME ret = gchoice;
    #####:   26:	return ret;
        -:   27:}
        -:   28:
    #####:   29:G_CTL_CODES get_led_sts()
        -:   30:{
    #####:   31:	G_CTL_CODES ret = gcmd;
    #####:   32:	return ret;
        -:   33:}
        -:   34:
        -:   35:
        -:   36:
        -:   37:#endif /* INC_STUB_C_ */
